%YAML 1.1
%TAG !u! tag:unity3d.com,2011:
--- !u!1045 &1
EditorBuildSettings:
  m_ObjectHideFlags: 0
  serializedVersion: 2
  m_Scenes:
  - enabled: 1
    path: Assets/PlatformerMicrogame/Scenes/MicroGameDefaultScene.unity
    guid: 78eb64b555c9da44c80d77c0f6bbf284
  m_configObjects: {}
